-------------------------------------------------------------------------------
Test set: j2c.tests.TestEval
-------------------------------------------------------------------------------
Tests run: 10, Failures: 0, Errors: 0, Skipped: 0, Time elapsed: 0.216 sec
